@startuml DD-Mud-Komponenten
skinparam componentStyle uml2
left to right direction
rectangle "MUD-Anwendung" {
rectangle "MUD-Server" as rect {

    [Client-Websocket-Service] <<Kafka-Processor>> as cws
    () "Chat-Service Nachricht" as InewAnswerCWS
    () "DM-Service Nachricht" as InewDMMessageCWS
    () "Spiel-Service Nachricht" as InewGameMEssageCWS
    cws -- InewAnswerCWS
    cws -- InewDMMessageCWS
    cws -- InewGameMEssageCWS
    note right of cws : Verwaltet die Websockets.\nNimmt Nachrichten entgegen\nund gibt sie weiter.

    [Dungeon-Master-Service] <<REST-Service; Kafka-Processor>> as dms
    () "Mitteilung aktueller Spielstand" as IcurrentGame
    dms -- IcurrentGame
    dms --( InewDMMessageCWS
    note bottom of dms : Liefert für DM aktuelle Spielinformationen.\nLeitet Spieländerungen weiter.

    [Spiel-Service] <<Kafka-Processor>> as ss
    () "Neuer Befehl" as InewCommandSS
    () "DM-Änderung" as IDMSS
    ss -up- InewCommandSS 
    ss -up- IDMSS
    note left of ss : Verwaltet alle laufenden Spiele.\nVerarbeitet Befehle der Spieler.\nTeilt Chat-Service Änderungen mit.

    [Chat-Service] <<Kafka-Processor>> as chatS
    () "Neuer Chatbefehl" as InewChat
    () "Aktuelle Spielinformation" as IcurrentGameChat
    chatS -left- InewChat
    chatS -up- IcurrentGameChat
    note top of chatS : Hat aktuelle Spielinformationen\nund verarbeitet neuen Chatbefehl.

    [Spiel-Konfigurator-Service] <<REST-Service>> as sks
    note right of sks : Nimmt Spiel-Konfigurationsobjekt\nentgegen und schreibt es in die Datenbank

    [Charakter-Konfigurator-Service] <<REST-Service>> as cks
    note right of cks : Liefert Infos für Charakterkoniguration.\nNimmt neuen Charakter entgegen.

    [Login-Service] <<REST-Service>> as ls
    note bottom of ls : Nimmt Registrierungen entgegen.\nPrüft Anmeldung.

    cws --( InewChat : benutzt
    cws --( InewCommandSS : benutzt
    ss -up-( InewGameMEssageCWS : benutzt
    chatS -up-( InewAnswerCWS : benutzt
    ss -up-( IcurrentGameChat : benutzt
    ss -up-( IcurrentGame : benutzt
    dms --( IDMSS : benutzt
}

[Web-Client] <<HTML>> as wClient
note right of wClient : Einfache HTML-Seite mit CSS und JS\nzur Darstellung des Frontend

() "Websocket-Spiel" as Iwscom
() "Websocket-Chat" as Iwschat
() "Websocket-DM" as IwsDM
() "REST-API" as InvdSKS
() "REST-API" as Ils
() "REST-API" as IccS
() "REST-API" as IDMS

Ils -down- ls
InvdSKS -down- sks
IccS -down-cks
cws -up- IwsDM
cws -up- Iwscom
cws -up- Iwschat
dms -up- IDMS

wClient -( Iwscom : Websocket
wClient --( Iwschat : Websocket
wClient --( InvdSKS : HTTP (REST)
wClient --( Ils : HTTP (REST)
wClient --( IccS : HTTP (REST)
wClient --( IwsDM : Websocket
wClient --( IDMS : HTTP (REST)
}

@enduml