@startuml DD-MUD-Player-Frontend-States
skinparam componentStyle uml2
header
<font size="35">Spieler-Zustandsdiagramm</font>
endheader
left to right direction
[*] --> Anmeldung_Registierung : Aufruf Webclient
Anmeldung_Registierung --> Anmeldung_Registierung : Erfolgreiche Registrierung
Anmeldung_Registierung --> Spiel_Auswahl : Anmeldung
Spiel_Auswahl --> Anmeldung_Registierung : Abmeldung
Spiel_Auswahl --> Spiel_Konfigurieren : Auswahl Spiel konfigurieren
Spiel_Konfigurieren --> Spiel_Auswahl : Erfolgreiche Konfiguration
Spiel_Auswahl --> Charakter_Konfiguration : Wahl nicht\nbeigetretenes Spiel
Spiel_Auswahl --> Spiel_als_Spieler : Wahl bereits\nbeigetretenem Spiel
Charakter_Konfiguration --> Spiel_als_Spieler : Erfolgreiche\nCharakterkonfiguration
Spiel_Auswahl --> Spiel_als_DM : Wahl eines selbst\nerstellen Spiels
Spiel_als_DM --> Spiel_Auswahl : Spiel verlassen
Spiel_als_Spieler --> Spiel_Auswahl : Spiel verlassen
Charakter_Konfiguration --> Spiel_Auswahl : Konfiguration abbrechen
Anmeldung_Registierung --> [*] : Schließen Web-Client
Spiel_Auswahl --> [*] : Schließen Web-Client
Spiel_als_DM --> [*] : Schließen Web-Client
Spiel_Konfigurieren --> [*] : Schließen Web-Client
Charakter_Konfiguration --> [*] : Schließen Web-Client
Spiel_als_Spieler --> [*] : Schließen Web-Client

@enduml