@startuml
hide footbox

title Spielverlauf steuern \n

actor "Dungeon Master" as dm
participant "Web-Client" as wc
participant "Dungeon-Master-Service" as dms
participant "Spiel-Service" as ss

note over dm : Ein laufendes Spiel soll\nverändert werden.
dm -> wc : DM verändert das Spiel\nüber ein Formular zur Spielveränderung.
activate wc
wc -> dms : Weiterleitung Spielveränderungsobjekt\n(REST)
activate dms
note over dms : Verarbeitung Spielobjekt.\nÄnderungen werden in der DB persistiert.
dms -> ss : Weiterleitung aktualisiertes Spielobjekt\n(Kafka)
activate ss
dms --> wc : Antwort: Erfolg oder Fehlschlag\n(REST)
deactivate dms
deactivate ss
wc --> dm : Der DM bekommt eine Mitteilung\nüber Erfolg oder Fehlschlag der\nVeränderung angezeigt.
deactivate wc
@enduml
