@startuml
hide footbox

title Au MUD-Server registrieren und anmelden \n

actor "Benutzer" as b
participant "Web-Client" as wc
participant "Login-Service" as ls

note over b : Benutzer möchte sich auf\n dem MUD-Server registrieren.
b -> wc : Eingabe von Nutzername, E-Mail\nund Passwort
activate wc
wc -> ls : Weiterleitung Accountobjekt\n(REST)
activate ls
note over ls : Verarbeitung des Acountobjekts.\nNeuer Account wird in der DB\npersistiert. Zunächst wird das\n"Registration-Complete-Flag"\nauf false gesetzt.
ls -> b : Der Benutzer bekommt eine E-Mail mit einem Bestätigungslink
b -> ls : Klick auf den Bestätigungslink
note over ls : Durch das Bestätigen durch den Link wird das\n"Registration-Complete-Flag" auf true gesetzt.
deactivate ls
deactivate wc
note over b : Der Benutzer kann seinen\nAccount jetzt verwenden
b -> wc : Eingabe von E-Mail und Passwort\neines bereits registrierten Accounts
activate wc
wc -> ls : Weiterleitung E-Mail und Passwort\n(REST)
activate ls
note over ls : Der Account wird in der DB gesucht.\nWenn Passwort und E-Mail übereinstimmen\nund das "Registration-Complete-Flag" auf true\ngesetzt ist -> Erfolgreiche Anmeldung
ls --> wc : Antwort: Erfolg oder Fehlschlag\n(REST)
deactivate ls
wc --> b : Benutzer bekommt eine Mitteilung\nüber Erfolg oder Fehlschlag der Anmeldung
deactivate wc
@enduml
