@startuml GameService

title Spiele Service

left to right direction

package "SpieleService"
{
    package "boundery" as boundery
    {
        package "listner" as listner
        {
            class "DungeonMasterMessageListener" AS DungeonMasterMessageListener
            {
                - mudKafkaMessageCompactGameDistributorService : mudKafkaMessageCompactGameDistributorService

                + getUpdatedGameObjectFromDungeonMaster(CompactGame : CompactGame)
                + printCompactGame(CompactGame : CompactGame)
            }

            class "GameMessageListener" as GameMessageListener
            {
                - mudKafkaMessageCompactGameDistributorService : MudKafkaMessageCompactGameDistributorService

                + getNewGameMessageFromPlayer(mudKafkaMessage : MudKafkaMessage)
            }
        }

        package "model" as model 
        {
             class "CompactGame" as CompactGame
            {
                - gameId : Long
                - rooms : List<CompactRoom>
                - bannedPlayers : List<Long>
                - dungeonMasterId : Long
                - globalActions : List<CompactAction>                
            }
            class "CompactAction" as CompactAction
            {
                - actionName : String
                - actionResult : String
            }

            class "CompactRoom" as CompactRoom
            {
                - roomId : Long
                - roomName : String
                - charactersInRoom : List<CompactCharacter
               - coordx : int
               - coordy : int
               - description : String
               - actions : List<CompactAction>
               - compactItems : List<CompactItem>
            }

            class "CompactIhtem" as CompactItem
            {
                - itemType : String
                - itemName : String
                - itemValue : Long
            }

            class "CompactCharacter" as CompactCharacter
            {
                - id : Long
                - name : String
                - hp : Long
                - damage : Long
                - classId : Long
                - raceId : Long
                - playerId : Long
                - userName : String
                - description : String
                - personality : String
                - characterItems : List<CompactItem>

            }  


            class "MudKafkaMessagee" as MudKafkaMessagee
            {
                id : Long
                message : String
                gameId : Long
            }     
        }

        package "producer" as producer
        {
            class "ChatServiceUpdateProducer" as ChatServiceUpdateProducer
            {
                - CHAT_SERVICE_GAME_UPDATE_TOPIC : String
                - kafkaTemplate : KafkaTemplate<String, CompactGame>

                + sendUpdatedGameToChatService(compactGame : CompactGame) 
                + printCompactGame(compactGame : CompactGame)
            }

            class "DungeonMasterUpdateProducer" as DungeonMasterUpdateProducer
            {
                - DUNGEON_MASTER_GAME_UPDATE_TOPIC : String
                - kafkaTemplate : KafkaTemplate<String, CompactGame>

                + sendUpdatedGameToDungeonMaster(compactGame : CompactGame)
                + printCompactGame(compactGame : CompactGame)
            }

            class "PlayerAnswerProducer" as PlayerAnswerProducer
            {
                - SEND_BACK_TO_CWS_SERVICE_TOPIC : String
                - kafkaTemplate : KafkaTemplate<String, CompactGame>

                + sendAnswerToPlayer(mudKafkaMessage : MudKafkaMessage)

            }
        }
     }

     package "configuration" as configuration
     {
          class "KafkaConsumerConfig" as KafkaConsumerConfig
        {
            - bootstrapServers  : bootstrapServers

            + consumerConfigs() : Map<String, Object>
            + consumerFactoryReceiveMessage() : ConsumerFactory<String, MudKafkaMessage>
            + kafkaListenerContainerFactoryGameService() : KafkaListenerContainerFactory<ConcurrentMessageListenerContainer<String, MudKafkaMessage>>
            + consumerFactoryGameObjectUpdate() : ConsumerFactory<String, CompactGame>
            + kafkaListenerContainerFactoryDMService() : KafkaListenerContainerFactory<ConcurrentMessageListenerContainer<String, CompactGame>>                        
        }

        class "KafkaProducerConfig" as KafkaProducerConfig
        {
            - bootstrapServers : String

            + producerConfigs() : Map<String, Object>
            + producerFactory() : ProducerFactory<String, ChatServiceAnswer>
            + kafkaTemplate() : KafkaTemplate<String, ChatServiceAnswer>
        }
     }

     package "controll" as controll
     {
            package "services" as services
            {
                package "compactGameService" as compactGameService
                {
                    package "controllobject" as controllobject
                    {
                        class "CharacterPosTuple" as CharacterPosTuple
                        {
                            compactCharacter :  CompactGame.CompactRoom.CompactCharacter
                            x : int
                            y : int
                        }
                    }

                    class "CompactCharakterService" as CompactCharakterService
                    {
                        - characterRepositoryService : CharacterRepositoryService
                        - userDataRepositoryService : UserDataRepositoryService
                        - itemRepositoryService : ItemRepositoryService
                        - itemCharacterRepositoryService : ItemCharacterRepositoryService

                        + mapCharactersToCompactCharacters(charakters : List<Character>) : List<CompactGame.CompactRoom.CompactCharacter>
                        - createCompactCharacter(gameId  : Long, userId : Long) : CompactGame.CompactRoom.CompactCharacter
                        - mapItemsToCompactItems(item : List<Item>) : List<CompactGame.CompactRoom.CompactItem>
                    }

                    class "CompactGameCharacterJoinService" as CompactGameCharacterJoinService
                    {
                        - receiveCharacterJoinService :  TeceiveCharacterJoinService                          

                        + getCompactGameWithJoinedCharacter(compactGame : CompactGame, playerId : Long)
                        + getMudKafkaMessageAfterPlayerJoined(mudKafkaMessage : MudKafkaMessage, message : String)
                    }

                    class "CompactGameCreatorService" as CompactGameCreatorService 
                    {
                            - gameRepositoryService : GameRepositoryService
                            - itemRepositoryService : ItemRepositoryService
                            - roomRepositoryService : RoomRepositoryService                            
                            - itemRoomRepositoryService : ItemRoomRepositoryService
                            - characterRepositoryService : CharacterRepositoryService
                            - playerGameBanRepositoryService : PlayerGameBanRepositoryService
                            - gameActionRepositoryService : GameActionRepositoryService
                            - receiveCharacterJoinService : ReceiveCharacterJoinService
                            - itemCharacterRepositoryService : ItemCharacterRepositoryService

                            + createCompactGame(gameId : Long , playerId : Long) : CompactGame
                            + getCompactGlobalActions(gameAction : List<GameAction) : List<CompactGame.CompactAction>
                            + getCompactLocalActionsByRoom(localActions : List<GameAction>, roomId : Long) :  List<CompactGame.CompactAction>
                    }

                    class "CompactGameUpdateService" as CompactGameUpdateService 
                    {
                            
                    }

                    class "ReceiveCharacterJoinService" as ReceiveCharacterJoinService
                    {
                            
                    }    
                }

                package "gamelogic" as gamelogic
                {
                    package "action" as actionName
                    {
                        class "GlobalActionService" as GlobalActionService
                        {

                        }

                         class "GlobalLocalActionService" as GlobalLocalActionService
                        {

                        }

                         class "LocalActionService" as LocalActionService
                        {

                        }                        
                    }

                     class "GameLogicStringConstants" as GameLogicStringConstants
                    {

                    }
                    
                     class "LeaveGameService" as LeaveGameService
                    {

                    }
                     class "MovementService" as MovementService
                    {

                    }
                     class "MudKafkaMessageCompactGamePair" as MudKafkaMessageCompactGamePair
                    {

                    }

                     class "MudKafkaMessageCompactGameUpdateService" as MudKafkaMessageCompactGameUpdateService
                    {

                    }

                     class "PlayerInformationService" as PlayerInformationService
                    {

                    }                        
                }

                package "repositoryservice" as repositoryservice
                {

                }
            
            class "MudKafkaMessageCompactGameDistributorService" as MudKafkaMessageCompactGameDistributorService
            {
                    - mudKafkaMessageCompactGameUpdateService : MudKafkaMessageCompactGameUpdateService
                    - compactGameUpdateService : CompactGameUpdateService
                    - playerAnswerProducer : PlayerAnswerProducer
                    - compactGameCreatorService : CompactGameCreatorService
                    - compactGameCharacterJoinService : CompactGameCharacterJoinService

                    + handleMudKafkaMessageInput(mudKafkaMessage : MudKafkaMessage)
                    + createGame(mudKafkaMessage : MudKafkaMessage)
                    + updateCompactGame(mudKafkaMessage : MudKafkaMessage, compactGame : CompactGame)
                    + handleCompactGameInputFromDungeonMaster(newCompactGame : CompactGame)
                    + updateMudKafkaMessageByMessage(playerId : Long, gaeId :Long, updatedMessage : String)
                    + getDescriptionOfZeroZeroRoom(compactGame : CompactGame)

            }
            
            }
     }

     package "entity" as entity
     {
         package "model" as model
         {

         }

         package "repository" as repositoryservice
         {

         }
     }

    CompactGame +-- CompactAction
    CompactGame +-- CompactRoom
    CompactRoom +-- CompactItem
    CompactRoom +-- CompactCharacter

}

@enduml