@startuml Klassendiagramm CharakterConfigService
hide footbox

title Charakter Config Service\n


'Split into 2 pages
'page 2x1
'skinparam pageMargin 10

left to right direction

package "CharakterConfigService"
{   
    package "boundary" as boundary   
    {
       

        package "model" as boundaryModel 
        {
            
            class "CharakterAlreadyExistsDTO" as CharakterAlreadyExists
            {
                charakterAlreadyExists : boolean
            }
            class "CharakterDTO" as CharakterDTO
            {
                - chName : String
                - classId : Long
                - raceId : Long
                - userId : Long
                - description : String
                - personality : String
            }
            class "ClassDTO" as ClassDTO
            {
                classID : Long
                classNme : String
            }
            
            class "GameInformationDTO" as GameInformationDTO
            {
                classDTOList : List<ClassDTO>
                raceDTOList : List<RaceDTO>
            }
            class "RaceDTO" as RaceDTO
            {
                raceID : Long
                raceName : String
            }
            class "ItemDTO" as ItemDTO
            {
                itemName : String
                itemId : Long 
            }
            
        }

     
        class "CharakterConfigAPI" as api <<REST-CONTROLLER>>
        {
            - gameInformationRepositoryService : GameInformationRepositoryService
            - charakterSaveService : CharakterSaveService
            - charakterAlreadyExistsService : CharakterAlreadyExistsService

            + getCharakterConfigurationInformation(gameId : Long) : ResponseEntity<GameInformationDTO>
            + saveNewCharakter(gameId : Long, charakterDTO : CharakterDTO) :  ResponseEntity<CharakterDTO>
            + playerHasAlreadyCharakter(gameId : Long, playerId : Long) : ResponseEntity<CharakterAlreadyExistsDTO>
        }

        class "CharakterConfigAPIExceptionHandler" as apiException
        {
            + handleUnexpectedException(e : handleUnexpectedException) : ResponseEntity<Void>
            + handleUnexpectedException(e : HttpMessageNotReadableException) : ResponseEntity<Void>
            + handleUnexpectedException(e : IllegalCharakterInformationException) : ResponseEntity<Void>
            + handleUnexpectedException(e : IllegalGameIdException) : ResponseEntity<Void>
            + handleUnexpectedException(e : MethodArgumentTypeMismatchException) : ResponseEntity<Void>
            + handleUnexpectedException(e : IllegalUserIdException) : ResponseEntity<Void>
        }


    }

    package "controll" as controll
    {
        package "exceptions" as exceptions
        {
            class "IllegalCharakterInformationException" as IllegalCharakterInformationException
            {

            }

            class  "IllegalGameIdException" as IllegalGameIdException
            {

            }

            class "IllegalUserIdException" as IllegalUserIdException
            {

            }
        }

        package "service" as service
        {
            package "repositoryservices" as repositoryservice
            {
                class "CharakterRepositoryService" as CharakterRepositoryService <<Service>>
                {
                    - charakterRepository : charakterRepository

                    + getAllCharakters() : List<Charakter
                    + getCharakterByGameIdAndUserId(gameId : Long, userId : Long) : boolean
                }

                class "ClassRepositoryService" as ClassRepositoryService <<Service>>
                {
                    - classRepository : ClassRepository

                    + getClassNamesByGameId(gameId : Long) : List<Class>
                }
 
                class "GameRepositoryService" as GameRepositoryService <<Service>>
                {
                    - gameRepository : GameRepository

                    + getGames() : List<Game>
                }
                class "ItemCharakterRepositoryService" as ItemCharaterReposervice <<Service>>
                {
                    - itemCharakterRepositoryService : ItemCharakterRepositoryService

                    + saveNewItemIdCharakterId(chId : Long, itemId :Long)
                    + deleteItemCharakterId(chId : Long, itemId :Long)
                    + getItemByCharakterByChId(chId : Long)

                }
                class "ItemRepositoryService" as ItemRepositoryService <<Service>>
                {
                    - itemRepository : ItemRepository

                    + getItemNameByGameId(gameId : Long) : List<Items>
                }

                class "RaceRepositoryService" as RaceRepositoryService <<Service>>
                {
                    - raceRepository : RaceRepository

                    + getRaceNamesByGameId(gameId : Long) : List<Race>
                }


                class "UserRepositoryService" as UserRepositoryService <<Service>>
                {
                    - userRepository : UserRepository

                    + getUsers() : List<User>
                }

            }

            class "CharakterAlreadyExistsService" as CharakterAlreadyExistsService <<Service>>
            {
                - charakterRepositoryService : CharakterRepositoryService
                - checkGameIdService : CheckGameIdService
                - checkUserIdService : CheckUserIdService

                + charakterAlreadyExists(gameId : Long, userId : Long) : CharakterAlreadyExistsDTO
            }
 
            class "CharakterSaveService" as CharakterSaveService <<Service>>
            {
                - charakterRepositoryService : CharakterRepositoryService
                - checkGameIdService : CheckGameIdService

                + saveCharakterToDB(charakterDTO : CharakterDTO, gameId : Long) : void
                + buildCharakter(charakterDTO : CharakterDTO, gameId : Long)  Charakter
                - checkIfNull(objects : Object) : boolean
                - checkIfEmptyString(strings : String) : boolean
            }

            class "CheckGameIdService" as CheckGameIdService <<Service>>
            {
                - gameRepositoryService : GameRepositoryService

                + existsInDataBase(gameId : Long) : boolean
            }

            class "CheckUserIdService" as CheckUserIdService <<Service>>
            {
                - userRepositoryService : UserRepositoryService

                + existsInDatabase(userId : Long) : boolean
            }
            class "DeleteCharacterService" as DeleteCharacterService <<Service>>
            {
                - charakterRepositoryService : CharakterRepositoryService
                - itemCharakterRepositoryService : ItemCharakterRepositoryService
                - checkGameIdService : CheckGameIdService
                - checkUserIdService : CheckUserIdService

                + deleteCharakterWithGameIdAndPlayerId(gameId : Long, playerI : Long)
            }

            class "GameInformationRepositoryService" as GameInformationRepositoryService <<Service>>
            {
                - classRepositoryService : ClassRepositoryService
                - raceRepositoryService : RaceRepositoryService
                - checkGameIdService : CheckGameIdService

                + getGameInformationByGameId(gameId : Long) : GameInformationDTO
                + getClassDTOByGameId(gameId : Long) : List<ClassDTO>
                + getRaceDTOByGameId(gameId : Long) : List<RaceDTO>
            }
        }


    }

    package "entity" as entity
    {
        package "model" as entityModel
        {
            class "Charakter" as Charakter
            {
                - id : Long
                - chName : String
                - chLevel : Long
                - hp : Long
                - demage : Long
                - classId : Long
                - raceId : Long
                - userId : Long
                - gameId : Long
                - description : String
                - personality : String
            }

            class "Class" as Class
            {
                - id : Long
                - className : String
                - gameId : Long
            }

            class "Game" as Game
            {
                - id : Long
                - gameName : String
                - userId : Long
            }
            class "Item" as ItemCharakterRepositoryService
            {
                - id : Long
                - itemType : String
                - itemName : String
                - itemvalue : Long
                - gameId : Long
            }
            class "ItemCharakter" as ItemCharakter
            {
                chId : Long
                itemId : Long
            }
            class "ItemCharakterId" as ItemCharakterId
            {
                - chId : Long
                -itemId : Long
            }

            class "Race" as Race
            {
                - id : Long
                - raceName : String
                - gameId : Long
            }

            class "User" as User
            {
                - id : Long
                - mail : String
                - username : String
                - mailHash : String
                - passwordHash : String
                - registrationsStatus : boolean
                - ranke : Long
            }
        }

        package "repository" as entityRepository
        {
            interface "CharakterRepository" as CharakterRepository <<Crud-Repository>>
            {
                + existsByUserIdAndGameId(userId : Long, gameId : Long) : boolean
            }

            interface "ClassRepository" as ClassRepository <<Crud-Repository>>
            {
                + findAllByGameId(gameId : Long) : Iterable<Class>
            }

            interface "GameRepository" as GameRepository <<Crud-Repository>>
            {
                + findAll() : List<Game>
            }
            interface "ItemCharakterRepository" as ItemCharakterRepository <<Crud-Repository>>
            {
                + findAllByChId(chId : Long) : List<Itemcharakter>
            }
            interface "ItemRepository" as ItemRepository <<Crud-Repository>>
            {
                findAllByGameId(gameId : Long) : Iterable<Item>
            }
 
            interface "RaceRepository" as RaceRepository <<Crud-Repository>>
            {
                + findAllByGameId(gameId : Long) : Iterable<Race>
            }

            interface "UserRepository" as UserRepository <<Crud-Repository>>
            {
                + findAll() : List<User>
            }
        }
    }

    class "DdMudCharacterConfigServiceApplication" as main
    {
        + main(args : String[]) : void
    }


    api - GameInformationRepositoryService
    api - CharakterSaveService
    api - CharakterAlreadyExistsService

   
}

@enduml
